com\belyak_is\practic4\NewServlet.class
com\belyak_is\practic4\resources\JakartaEE10Resource.class
com\belyak_is\practic4\Users.class
com\belyak_is\practic4\DataService.class
com\belyak_is\practic4\DatabaseUtil.class
com\belyak_is\practic4\JakartaRestConfiguration.class
com\belyak_is\practic4\Rents.class
com\belyak_is\practic4\RentList.class
